[gd_scene load_steps=4 format=3 uid="uid://bvwjrscruspi4"]

[ext_resource type="Script" path="res://player.gd" id="1_j553p"]
[ext_resource type="Texture2D" uid="uid://cnl0eg13meabr" path="res://icon.svg" id="2_sb5br"]

[sub_resource type="RectangleShape2D" id="RectangleShape2D_1fa34"]
size = Vector2(128, 128)

[node name="Player" type="CharacterBody2D"]
position = Vector2(168, 264)
scale = Vector2(0.25, 0.25)
collision_mask = 6
script = ExtResource("1_j553p")
metadata/_edit_group_ = true

[node name="Sprite2D" type="Sprite2D" parent="."]
position = Vector2(0, -64)
texture = ExtResource("2_sb5br")

[node name="CollisionShape2D" type="CollisionShape2D" parent="."]
position = Vector2(0, -64)
shape = SubResource("RectangleShape2D_1fa34")
